{
    "homepage": "https://www.googleplaymusicdesktopplayer.com/",
    "description": "Google Play Music Desktop Player (unofficial)",
    "version": "4.7.1",
    "license": "MIT",
    "url": "https://github.com/MarshallOfSound/Google-Play-Music-Desktop-Player-UNOFFICIAL-/releases/download/v4.7.1/GPMDP_3-4.7.1-full.nupkg#/dl.7z",
    "hash": "D865DFD7C4C4CD62EBEA40230E79EEA0D957E333733047A10053FB1D44A12FD9",
    "extract_dir": "lib\\net45",
    "shortcuts": [
        [
            "Google%20Play%20Music%20Desktop%20Player.exe",
            "Google Play Music Desktop Player"
        ]
    ],
    "checkver": {
        "github": "https://github.com/MarshallOfSound/Google-Play-Music-Desktop-Player-UNOFFICIAL-"
    },
    "autoupdate": {
        "url": "https://github.com/MarshallOfSound/Google-Play-Music-Desktop-Player-UNOFFICIAL-/releases/download/v$version/GPMDP_3-$version-full.nupkg#/dl.7z",
        "hash": {
            "url": "$baseurl/RELEASES"
        }
    }
}