{
    "autoupdate": {
        "url": "https://github.com/yakyak/yakyak/releases/download/v$version-beta-rolling/yakyak-$version-win32-x64.zip"
    },
    "description": "Desktop chat client for Google Hangouts",
    "hash": "1CF0EA31EDC3AC3748936E968C6AF56976B9FEA6EA226083D99BF8DBC2E28903",
    "homepage": "https://github.com/yakyak/yakyak",
    "shortcuts": [
        [
            "yakyak-win32-x64\\yakyak.exe",
            "YakYak"
        ]
    ],
    "url": "https://github.com/yakyak/yakyak/releases/download/v1.5.5-beta-rolling/yakyak-1.5.5-win32-x64.zip",
    "version": "1.5.5"
}